<?xml version="1.0" encoding="utf-8"?>
<!DOCTYPE eagle SYSTEM "eagle.dtd">
<eagle version="9.2.0">
    <drawing>
        <settings>
            <setting alwaysvectorfont="no"/>
            <setting verticaltext="up"/>
        </settings>
        <grid distance="0.1" unitdist="inch" unit="inch" style="lines" multiple="1" display="no" altdistance="0.01"
              altunitdist="inch" altunit="inch"/>
        <layers>
            <layer number="88" name="SimResults" color="9" fill="1" visible="yes" active="yes"/>
            <layer number="89" name="SimProbes" color="9" fill="1" visible="yes" active="yes"/>
            <layer number="90" name="Modules" color="5" fill="1" visible="yes" active="yes"/>
            <layer number="91" name="Nets" color="2" fill="1" visible="yes" active="yes"/>
            <layer number="92" name="Busses" color="1" fill="1" visible="yes" active="yes"/>
            <layer number="93" name="Pins" color="2" fill="1" visible="no" active="yes"/>
            <layer number="94" name="Symbols" color="4" fill="1" visible="yes" active="yes"/>
            <layer number="95" name="Names" color="7" fill="1" visible="yes" active="yes"/>
            <layer number="96" name="Values" color="7" fill="1" visible="yes" active="yes"/>
            <layer number="97" name="Info" color="7" fill="1" visible="yes" active="yes"/>
            <layer number="98" name="Guide" color="6" fill="1" visible="yes" active="yes"/>
        </layers>
        <schematic xreflabel="%F%N/%S.%C%R" xrefpart="/%S.%C%R">
            <libraries>
            </libraries>
            <attributes>
            </attributes>
            <variantdefs>
            </variantdefs>
            <classes>
                <class number="0" name="default" width="0" drill="0">
                </class>
            </classes>
            <parts>
            </parts>
            <sheets>
                <sheet>
                    <plain>
                    </plain>
                    <instances>
                    </instances>
                    <busses>
                    </busses>
                    <nets>
                    </nets>
                </sheet>
            </sheets>
        </schematic>
    </drawing>
</eagle>
